source/T4/testbench/RFPDP8_tb.vcd
$date
  Sat Mar 18 08:04:52 2023
$end
$version
  GHDL v0
$end
$timescale
  1 fs
$end
$scope module standard $end
$upscope $end
$scope module textio $end
$upscope $end
$scope module std_logic_1164 $end
$upscope $end
$scope module numeric_std $end
$upscope $end
$scope module rfpdp8_tb $end
$var reg 1 ! clk $end
$var reg 1 " reset $end
$var reg 12 # coretocpu[11:0] $end
$var reg 12 $ cputocore[11:0] $end
$var reg 12 % ma[11:0] $end
$var reg 1 & mread $end
$var reg 1 ' mwrite $end
$scope module coreblock_i $end
$var reg 1 ( clk_i $end
$var reg 1 ) we_i $end
$var reg 12 * address_i[11:0] $end
$var reg 12 + q_o[11:0] $end
$var reg 12 , data_i[11:0] $end
$comment core is not handled $end
$var integer 32 - raddr $end
$upscope $end
$scope module rfpdp8_i $end
$var reg 1 . clk_i $end
$var reg 1 / reset_i $end
$var reg 12 0 ma_o[11:0] $end
$var reg 12 1 ibus_o[11:0] $end
$var reg 12 2 ibus_i[11:0] $end
$var reg 1 3 read_o $end
$var reg 1 4 write_o $end
$comment rf is not handled $end
$var reg 12 5 seq[11:0] $end
$var reg 12 6 ir[11:0] $end
$var reg 12 7 sr[11:0] $end
$var reg 12 8 rfo[11:0] $end
$var reg 12 9 ma[11:0] $end
$var reg 12 : temp[11:0] $end
$var reg 13 ; aluo[12:0] $end
$var reg 12 < ibus[11:0] $end
$var reg 12 = pc[11:0] $end
$var reg 12 > ac[11:0] $end
$var reg 5 ? falu[4:0] $end
$var integer 32 @ addo $end
$var reg 1 A cin $end
$var reg 1 B halt $end
$var reg 1 C haltset $end
$var reg 1 D irld $end
$var reg 1 E iro $end
$var reg 1 F linkcmp $end
$var reg 1 G linkcmpt $end
$var reg 1 H linkclr $end
$var reg 1 I linkld $end
$var reg 1 J link $end
$var reg 1 K mread $end
$var reg 1 L mwrite $end
$var reg 1 M needaddr $end
$var reg 1 N seq0 $end
$var reg 1 O seq5 $end
$var reg 1 P seq8 $end
$var reg 1 Q srld $end
$var reg 1 R srlsl $end
$var reg 1 S srlsr $end
$var reg 1 T sroelo $end
$var reg 1 U sroehi $end
$var reg 1 V tempclr $end
$var reg 1 W templd $end
$var reg 1 X mald $end
$var reg 1 Y rrf $end
$var reg 2 Z rrfa[1:0] $end
$var reg 1 [ wrf $end
$var reg 2 \ wrfa[1:0] $end
$scope module pdp8dis_i $end
$var reg 1 ] clk_i $end
$var reg 1 ^ reset_i $end
$var reg 1 _ decode_i $end
$var reg 1 ` halted_i $end
$var reg 12 a areg_i[11:0] $end
$var reg 12 b ireg_i[11:0] $end
$var reg 12 c mreg_i[11:0] $end
$var reg 12 d preg_i[11:0] $end
$var reg 1 e link_i $end
$var reg 12 f ir[11:0] $end
$var reg 1 g ir_and $end
$var reg 1 h ir_tad $end
$var reg 1 i ir_isz $end
$var reg 1 j ir_dca $end
$var reg 1 k ir_jms $end
$var reg 1 l ir_jmp $end
$var reg 1 m ir_io $end
$var reg 1 n ir_opr1 $end
$var reg 1 o ir_opr2 $end
$var reg 1 p bit_cla $end
$var reg 1 q bit_cll $end
$var reg 1 r bit_cma $end
$var reg 1 s bit_cml $end
$var reg 1 t bit_rar $end
$var reg 1 u bit_ral $end
$var reg 1 v bit_r2 $end
$var reg 1 w bit_iac $end
$var reg 1 x bit_sma $end
$var reg 1 y bit_sza $end
$var reg 1 z bit_snl $end
$var reg 1 { bit_rsk $end
$var reg 1 | bit_osr $end
$var reg 1 } bit_hlt $end
$var reg 1 !" bit_0 $end
$var reg 12 "" addr[11:0] $end
$var integer 32 #" maj $end
$var integer 32 $" io $end
$var integer 32 %" sr1 $end
$var integer 32 &" sr2 $end
$var reg 6 '" io_select[5:0] $end
$upscope $end
$upscope $end
$upscope $end
$enddefinitions $end
#0
0!
1"
bUUUUUUUUUUUU #
bZZZZZZZZZZZZ $
bUUUUUUUUUUUU %
0&
0'
0(
0)
bUUUUUUUUUUUU *
bUUUUUUUUUUUU +
bZZZZZZZZZZZZ ,
b0 -
0.
1/
bUUUUUUUUUUUU 0
bZZZZZZZZZZZZ 1
bUUUUUUUUUUUU 2
03
04
b000000000001 5
bUUUUUUUUUUUU 6
bUUUUUUUUUUUU 7
b000000000000 8
bUUUUUUUUUUUU 9
bUUUUUUUUUUUU :
b0000000000000 ;
b000000000000 <
b000000000000 =
b000000000000 >
b01111 ?
b0 @
0A
0B
0C
0D
0E
0F
0G
0H
0I
UJ
0K
0L
1M
1N
0O
0P
1Q
0R
0S
0T
0U
1V
0W
0X
1Y
b00 Z
0[
b01 \
0]
1^
0_
0`
b000000000000 a
bUUUUUUUUUUUU b
bUUUUUUUUUUUU c
b000000000000 d
Ue
bUUUUUUUUUUUU f
0g
0h
0i
0j
0k
0l
0m
0n
0o
0p
0q
0r
0s
0t
0u
0v
0w
0x
0y
0z
0{
0|
0}
0!"
b00000UUUUUUU ""
b0 #"
b0 $"
b0 %"
b0 &"
bUUUUUU '"
#50000000
b111001000000 #
b111001000000 +
b111001000000 2
#500000000
1!
1(
1.
b000000000000 7
b000000000000 :
1]
#1000000000
0!
0(
0.
0]
#1500000000
1!
1(
1.
1]
#2000000000
0!
0(
0.
0]
#2233000000
0"
0/
0^
#2500000000
1!
1(
1.
1]
#3000000000
0!
0(
0.
b000000000010 5
b00010 ?
0N
0Q
1T
1U
0V
1X
0]
#3500000000
1!
b000000000000 %
1(
b000000000000 *
1.
b000000000000 0
b000000000000 9
1]
b000000000000 c
#4000000000
0!
1&
0(
0.
13
b000000000100 5
b111001000000 <
1D
1K
0T
0U
0X
0Y
b01 Z
0]
#4500000000
1!
1(
1.
b111001000000 6
0M
1]
b111001000000 b
b111001000000 f
1n
1q
1x
b000001000000 ""
b111 #"
b1000 $"
#5000000000
0!
0&
0(
0.
03
b000000001000 5
b000000000000 <
0D
0K
0]
#5500000000
1!
1(
1.
1]
#6000000000
0!
0(
0.
b000000010000 5
b0000000000001 ;
b00001 ?
b1 @
1A
1Q
1Y
b00 Z
0]
1_
#6500000000
1!
1(
1.
b000000000001 7
1]
#7000000000
0!
0(
0.
b000000100000 5
b0000000000000 ;
b000000000001 <
b00010 ?
b0 @
0A
1H
1O
0Q
1T
1U
0Y
b01 Z
1[
b00 \
0]
0_
#7500000000
1!
1(
1.
b000000000001 =
0J
1]
b000000000001 d
0e
#8000000000
0!
0(
0.
b000001000000 5
b000000000000 <
0H
0O
0T
0U
0[
b01 \
0]
#8500000000
1!
1(
1.
1]
#9000000000
0!
0(
0.
b000010000000 5
0]
#9500000000
1!
1(
1.
1]
#10000000000
0!
0(
0.
b000100000000 5
1P
1Q
1Y
0]
#10500000000
1!
1(
1.
b000000000000 7
1]
#11000000000
0!
0(
0.
b001000000000 5
0P
0Q
1T
1U
0Y
0]
#11500000000
1!
1(
1.
1]
#12000000000
0!
0(
0.
b010000000000 5
0T
0U
0]
#12500000000
1!
1(
1.
1]
#13000000000
0!
0(
0.
b100000000000 5
0]
#13500000000
1!
1(
1.
1]
#14000000000
0!
0(
0.
b000000000001 5
b000000000001 8
b0000000000001 ;
b01111 ?
b1 @
1N
1Q
1V
1Y
b00 Z
0]
#14500000000
1!
1(
1.
b000000000001 7
1]
#15000000000
0!
0(
0.
b000000000010 5
b000000000001 <
b00010 ?
0N
0Q
1T
1U
0V
1X
0]
#15500000000
1!
b000000000001 %
1(
b000000000001 *
b1 -
1.
b000000000001 0
b000000000001 9
1]
b000000000001 c
#15550000000
b001001000000 #
b001001000000 +
b001001000000 2
#16000000000
0!
1&
0(
0.
13
b000000000100 5
b000000000000 8
b0000000000000 ;
b001001000000 <
b0 @
1D
1K
0T
0U
0X
0Y
b01 Z
0]
#16500000000
1!
1(
1.
b001001000000 6
1M
1]
b001001000000 b
b001001000000 f
1h
0n
b1 #"
#17000000000
0!
0&
0(
0.
03
b000000001000 5
b000001000000 <
0D
1E
0K
1X
0]
#17500000000
1!
b000001000000 %
1(
b000001000000 *
b1000000 -
1.
b000001000000 0
b000001000000 9
1]
b000001000000 c
#17550000000
b000000000001 #
b000000000001 +
b000000000001 2
#18000000000
0!
0(
0.
b000000010000 5
b000000000001 8
b0000000000010 ;
b000000000000 <
b00001 ?
b10 @
1A
0E
1Q
0X
1Y
b00 Z
0]
1_
#18500000000
1!
1(
1.
b000000000010 7
1]
#19000000000
0!
0(
0.
b000000100000 5
b000000000000 8
b0000000000000 ;
b000000000010 <
b00010 ?
b0 @
0A
1O
0Q
1T
1U
0Y
b01 Z
1[
b00 \
0]
0_
#19500000000
1!
1(
1.
b000000000010 =
1]
b000000000010 d
#20000000000
0!
1&
0(
0.
13
b000001000000 5
b000000000001 <
1K
0O
0T
0U
1W
0[
b01 \
0]
#20500000000
1!
1(
1.
b000000000001 :
b0000000000001 ;
b1 @
1]
#21000000000
0!
0&
0(
0.
03
b000010000000 5
b000000000000 <
0K
0W
0]
#21500000000
1!
1(
1.
1]
#22000000000
0!
0(
0.
b000100000000 5
b00001 ?
1P
1Q
1Y
0]
#22500000000
1!
1(
1.
b000000000001 7
1]
#23000000000
0!
0(
0.
b001000000000 5
b000000000001 <
b00010 ?
1G
1I
0P
0Q
1T
1U
0Y
1[
0]
#23500000000
1!
1(
1.
b000000000001 >
1]
b000000000001 a
#24000000000
0!
0(
0.
b010000000000 5
b000000000000 <
0G
0I
0T
0U
0[
0]
#24500000000
1!
1(
1.
1]
#25000000000
0!
0(
0.
b100000000000 5
0]
#25500000000
1!
1(
1.
1]
#26000000000
0!
0(
0.
b000000000001 5
b000000000010 8
b0000000000010 ;
b01111 ?
b11 @
1N
1Q
1V
1Y
b00 Z
0]
#26500000000
1!
1(
1.
b000000000010 7
b000000000000 :
b10 @
1]
#27000000000
0!
0(
0.
b000000000010 5
b000000000010 <
b00010 ?
0N
0Q
1T
1U
0V
1X
0]
#27500000000
1!
b000000000010 %
1(
b000000000010 *
b10 -
1.
b000000000010 0
b000000000010 9
1]
b000000000010 c
#27550000000
b001001000001 #
b001001000001 +
b001001000001 2
#28000000000
0!
1&
0(
0.
13
b000000000100 5
b000000000000 8
b0000000000001 ;
b001001000001 <
b0 @
1D
1K
0T
0U
0X
0Y
b01 Z
0]
#28500000000
1!
1(
1.
b001001000001 6
1]
b001001000001 b
b001001000001 f
1w
1!"
b000001000001 ""
#29000000000
0!
0&
0(
0.
03
b000000001000 5
b000001000001 <
0D
1E
0K
1X
0]
#29500000000
1!
b000001000001 %
1(
b000001000001 *
b1000001 -
1.
b000001000001 0
b000001000001 9
1]
b000001000001 c
#29550000000
b111111111111 #
b111111111111 +
b111111111111 2
#30000000000
0!
0(
0.
b000000010000 5
b000000000010 8
b0000000000011 ;
b000000000000 <
b00001 ?
b11 @
1A
0E
1Q
0X
1Y
b00 Z
0]
1_
#30500000000
1!
1(
1.
b000000000011 7
1]
#31000000000
0!
0(
0.
b000000100000 5
b000000000000 8
b0000000000001 ;
b000000000011 <
b00010 ?
b0 @
0A
1O
0Q
1T
1U
0Y
b01 Z
1[
b00 \
0]
0_
#31500000000
1!
1(
1.
b000000000011 =
1]
b000000000011 d
#32000000000
0!
1&
0(
0.
13
b000001000000 5
b111111111111 <
1K
0O
0T
0U
1W
0[
b01 \
0]
#32500000000
1!
1(
1.
b111111111111 :
b0111111111111 ;
b111111111111 @
1]
#33000000000
0!
0&
0(
0.
03
b000010000000 5
b000000000000 <
0K
0W
0]
#33500000000
1!
1(
1.
1]
#34000000000
0!
0(
0.
b000100000000 5
b000000000001 8
b1000000000000 ;
b00001 ?
b1000000000000 @
1P
1Q
1Y
0]
#34500000000
1!
1(
1.
b000000000000 7
1]
#35000000000
0!
0(
0.
b001000000000 5
b000000000000 8
b0111111111111 ;
b00010 ?
b111111111111 @
1G
1I
0P
0Q
1T
1U
0Y
1[
0]
#35500000000
1!
1(
1.
b000000000000 >
1]
b000000000000 a
#36000000000
0!
0(
0.
b010000000000 5
0G
0I
0T
0U
0[
0]
#36500000000
1!
1(
1.
1]
#37000000000
0!
0(
0.
b100000000000 5
0]
#37500000000
1!
1(
1.
1]
#38000000000
0!
0(
0.
b000000000001 5
b000000000011 8
b0000000000011 ;
b01111 ?
b1000000000010 @
1N
1Q
1V
1Y
b00 Z
0]
#38500000000
1!
1(
1.
b000000000011 7
b000000000000 :
b11 @
1]
#39000000000
0!
0(
0.
b000000000010 5
b000000000011 <
b00010 ?
0N
0Q
1T
1U
0V
1X
0]
#39500000000
1!
b000000000011 %
1(
b000000000011 *
b11 -
1.
b000000000011 0
b000000000011 9
1]
b000000000011 c
#39550000000
b010001000001 #
b010001000001 +
b010001000001 2
#40000000000
0!
1&
0(
0.
13
b000000000100 5
b000000000000 8
b0000000000000 ;
b010001000001 <
b0 @
1D
1K
0T
0U
0X
0Y
b01 Z
0]
#40500000000
1!
1(
1.
b010001000001 6
1]
b010001000001 b
b010001000001 f
0h
1i
b10 #"
#41000000000
0!
0&
0(
0.
03
b000000001000 5
b000001000001 <
0D
1E
0K
1X
0]
#41500000000
1!
b000001000001 %
1(
b000001000001 *
b1000001 -
1.
b000001000001 0
b000001000001 9
1]
b000001000001 c
#41550000000
b111111111111 #
b111111111111 +
b111111111111 2
#42000000000
0!
0(
0.
b000000010000 5
b000000000011 8
b0000000000100 ;
b000000000000 <
b00001 ?
b100 @
1A
0E
1Q
0X
1Y
b00 Z
0]
1_
#42500000000
1!
1(
1.
b000000000100 7
1]
#43000000000
0!
0(
0.
b000000100000 5
b000000000000 8
b0000000000000 ;
b000000000100 <
b00010 ?
b0 @
0A
1O
0Q
1T
1U
0Y
b01 Z
1[
b00 \
0]
0_
#43500000000
1!
1(
1.
b000000000100 =
1]
b000000000100 d
#44000000000
0!
1&
0(
0.
13
b000001000000 5
b111111111111 <
1K
0O
0T
0U
1W
0[
b01 \
0]
#44500000000
1!
1(
1.
b111111111111 :
b0111111111111 ;
b111111111111 @
1]
#45000000000
0!
0&
0(
0.
03
b000010000000 5
b000000000000 <
0K
0W
0]
#45500000000
1!
1(
1.
1]
#46000000000
0!
0(
0.
b000100000000 5
b1000000000000 ;
b00001 ?
b1000000000000 @
1A
1P
1Q
0]
#46500000000
1!
1(
1.
b000000000000 7
1]
#47000000000
0!
b000000000000 $
1'
0(
1)
b000000000000 ,
0.
b000000000000 1
14
b001000000000 5
b0111111111111 ;
b00010 ?
b111111111111 @
0A
1L
0P
0Q
1T
1U
0]
#47500000000
1!
1(
1.
1]
#47550000000
b000000000000 #
b000000000000 +
b000000000000 2
#48000000000
0!
bZZZZZZZZZZZZ $
0'
0(
0)
bZZZZZZZZZZZZ ,
0.
bZZZZZZZZZZZZ 1
04
b010000000000 5
0L
0T
0U
0]
#48500000000
1!
1(
1.
1]
#49000000000
0!
0(
0.
b100000000000 5
0]
#49500000000
1!
1(
1.
1]
#50000000000
0!
0(
0.
b000000000001 5
b000000000100 8
b0000000000100 ;
b01111 ?
b1000000000011 @
1N
1Q
1V
1Y
b00 Z
0]
#50500000000
1!
1(
1.
b000000000100 7
b000000000000 :
b100 @
1]
#51000000000
0!
0(
0.
b000000000010 5
b000000000100 <
b00010 ?
0N
0Q
1T
1U
0V
1X
0]
#51500000000
1!
b000000000100 %
1(
b000000000100 *
b100 -
1.
b000000000100 0
b000000000100 9
1]
b000000000100 c
#51550000000
b111010000000 #
b111010000000 +
b111010000000 2
#52000000000
0!
1&
0(
0.
13
b000000000100 5
b000000000000 8
b0000000000000 ;
b111010000000 <
b0 @
1D
1K
0T
0U
0X
0Y
b01 Z
0]
#52500000000
1!
1(
1.
b111010000000 6
0M
1]
b111010000000 b
b111010000000 f
0i
1n
1p
0q
0w
0x
0!"
b000000000000 ""
b111 #"
b10000 $"
#53000000000
0!
0&
0(
0.
03
b000000001000 5
b000000000000 <
0D
0K
0]
#53500000000
1!
1(
1.
1]
#54000000000
0!
0(
0.
b000000010000 5
b000000000100 8
b0000000000101 ;
b00001 ?
b101 @
1A
1Q
1Y
b00 Z
0]
1_
#54500000000
1!
1(
1.
b000000000101 7
1]
#55000000000
0!
0(
0.
b000000100000 5
b000000000000 8
b0000000000000 ;
b000000000101 <
b00010 ?
b0 @
0A
1O
0Q
1T
1U
0Y
b01 Z
1[
b00 \
0]
0_
#55500000000
1!
1(
1.
b000000000101 =
1]
b000000000101 d
#56000000000
0!
0(
0.
b000001000000 5
b000000000000 <
0O
0T
0U
b01 \
0]
#56500000000
1!
1(
1.
1]
#57000000000
0!
0(
0.
b000010000000 5
0[
0]
#57500000000
1!
1(
1.
1]
#58000000000
0!
0(
0.
b000100000000 5
1P
1Q
1Y
0]
#58500000000
1!
1(
1.
b000000000000 7
1]
#59000000000
0!
0(
0.
b001000000000 5
0P
0Q
1T
1U
0Y
0]
#59500000000
1!
1(
1.
1]
#60000000000
0!
0(
0.
b010000000000 5
0T
0U
0]
#60500000000
1!
1(
1.
1]
#61000000000
0!
0(
0.
b100000000000 5
0]
#61500000000
1!
1(
1.
1]
#62000000000
0!
0(
0.
b000000000001 5
b000000000101 8
b0000000000101 ;
b01111 ?
b101 @
1N
1Q
1V
1Y
b00 Z
0]
#62500000000
1!
1(
1.
b000000000101 7
1]
#63000000000
0!
0(
0.
b000000000010 5
b000000000101 <
b00010 ?
0N
0Q
1T
1U
0V
1X
0]
#63500000000
1!
b000000000101 %
1(
b000000000101 *
b101 -
1.
b000000000101 0
b000000000101 9
1]
b000000000101 c
#63550000000
b001001000010 #
b001001000010 +
b001001000010 2
#64000000000
0!
1&
0(
0.
13
b000000000100 5
b000000000000 8
b0000000000000 ;
b001001000010 <
b0 @
1D
1K
0T
0U
0X
0Y
b01 Z
0]
#64500000000
1!
1(
1.
b001001000010 6
1M
1]
b001001000010 b
b001001000010 f
1h
0n
0p
1q
1v
1x
1}
b000001000010 ""
b1 #"
b1000 $"
#65000000000
0!
0&
0(
0.
03
b000000001000 5
b000001000010 <
0D
1E
0K
1X
0]
#65500000000
1!
b000001000010 %
1(
b000001000010 *
b1000010 -
1.
b000001000010 0
b000001000010 9
1]
b000001000010 c
#65550000000
b111111111111 #
b111111111111 +
b111111111111 2
#66000000000
0!
0(
0.
b000000010000 5
b000000000101 8
b0000000000110 ;
b000000000000 <
b00001 ?
b110 @
1A
0E
1Q
0X
1Y
b00 Z
0]
1_
#66500000000
1!
1(
1.
b000000000110 7
1]
#67000000000
0!
0(
0.
b000000100000 5
b000000000000 8
b0000000000000 ;
b000000000110 <
b00010 ?
b0 @
0A
1O
0Q
1T
1U
0Y
b01 Z
1[
b00 \
0]
0_
#67500000000
1!
1(
1.
b000000000110 =
1]
b000000000110 d
#68000000000
0!
1&
0(
0.
13
b000001000000 5
b111111111111 <
1K
0O
0T
0U
1W
0[
b01 \
0]
#68500000000
1!
1(
1.
b111111111111 :
b0111111111111 ;
b111111111111 @
1]
#69000000000
0!
0&
0(
0.
03
b000010000000 5
b000000000000 <
0K
0W
0]
#69500000000
1!
1(
1.
1]
#70000000000
0!
0(
0.
b000100000000 5
b00001 ?
1P
1Q
1Y
0]
#70500000000
1!
1(
1.
b111111111111 7
1]
#71000000000
0!
0(
0.
b001000000000 5
b111111111111 <
b00010 ?
1G
1I
0P
0Q
1T
1U
0Y
1[
0]
#71500000000
1!
1(
1.
b111111111111 >
1]
b111111111111 a
#72000000000
0!
0(
0.
b010000000000 5
b000000000000 <
0G
0I
0T
0U
0[
0]
#72500000000
1!
1(
1.
1]
#73000000000
0!
0(
0.
b100000000000 5
0]
#73500000000
1!
1(
1.
1]
#74000000000
0!
0(
0.
b000000000001 5
b000000000110 8
b0000000000110 ;
b01111 ?
b1000000000101 @
1N
1Q
1V
1Y
b00 Z
0]
#74500000000
1!
1(
1.
b000000000110 7
b000000000000 :
b110 @
1]
#75000000000
0!
0(
0.
b000000000010 5
b000000000110 <
b00010 ?
0N
0Q
1T
1U
0V
1X
0]
#75500000000
1!
b000000000110 %
1(
b000000000110 *
b110 -
1.
b000000000110 0
b000000000110 9
1]
b000000000110 c
#75550000000
b111010100000 #
b111010100000 +
b111010100000 2
#76000000000
0!
1&
0(
0.
13
b000000000100 5
b000000000000 8
b0111111111111 ;
b111010100000 <
b0 @
1D
1K
0T
0U
0X
0Y
b01 Z
0]
#76500000000
1!
1(
1.
b111010100000 6
0M
1]
b111010100000 b
b111010100000 f
0h
1n
1p
0q
1r
0v
0x
1y
0}
b000000100000 ""
b111 #"
b10100 $"
#77000000000
0!
0&
0(
0.
03
b000000001000 5
b000000000000 <
0D
0K
0]
#77500000000
1!
1(
1.
1]
#78000000000
0!
0(
0.
b000000010000 5
b000000000110 8
b0000000000111 ;
b00001 ?
b111 @
1A
1Q
1Y
b00 Z
0]
1_
#78500000000
1!
1(
1.
b000000000111 7
1]
#79000000000
0!
0(
0.
b000000100000 5
b000000000000 8
b0111111111111 ;
b000000000111 <
b00010 ?
b0 @
0A
1O
0Q
1T
1U
0Y
b01 Z
1[
b00 \
0]
0_
#79500000000
1!
1(
1.
b000000000111 =
1]
b000000000111 d
#80000000000
0!
0(
0.
b000001000000 5
b000000000000 <
0O
0T
0U
b01 \
0]
#80500000000
1!
1(
1.
b0000000000000 ;
b000000000000 >
1]
b000000000000 a
#81000000000
0!
0(
0.
b000010000000 5
0[
0]
#81500000000
1!
1(
1.
1]
#82000000000
0!
0(
0.
b000100000000 5
b0111111111111 ;
b00011 ?
1P
1Q
1Y
0]
#82500000000
1!
1(
1.
b111111111111 7
1]
#83000000000
0!
0(
0.
b001000000000 5
b0000000000000 ;
b111111111111 <
b00010 ?
0P
0Q
1T
1U
0Y
1[
0]
#83500000000
1!
1(
1.
b0111111111111 ;
b111111111111 >
1]
b111111111111 a
#84000000000
0!
0(
0.
b010000000000 5
b000000000000 <
0T
0U
0[
0]
#84500000000
1!
1(
1.
1]
#85000000000
0!
0(
0.
b100000000000 5
0]
#85500000000
1!
1(
1.
1]
#86000000000
0!
0(
0.
b000000000001 5
b000000000111 8
b0000000000111 ;
b01111 ?
b111 @
1N
1Q
1V
1Y
b00 Z
0]
#86500000000
1!
1(
1.
b000000000111 7
1]
#87000000000
0!
0(
0.
b000000000010 5
b000000000111 <
b00010 ?
0N
0Q
1T
1U
0V
1X
0]
#87500000000
1!
b000000000111 %
1(
b000000000111 *
b111 -
1.
b000000000111 0
b000000000111 9
1]
b000000000111 c
#87550000000
b111100000010 #
b111100000010 +
b111100000010 2
#88000000000
0!
1&
0(
0.
13
b000000000100 5
b000000000000 8
b0111111111111 ;
b111100000010 <
b0 @
1D
1K
0T
0U
0X
0Y
b01 Z
0]
#88500000000
1!
1(
1.
b111100000010 6
1]
b111100000010 b
b111100000010 f
0n
1o
0p
0r
1v
0y
1}
b000000000010 ""
b100000 $"
#89000000000
0!
0&
0(
0.
03
b000000001000 5
b000000000000 <
0D
0K
0]
#89500000000
1!
1(
1.
1]
#90000000000
0!
0(
0.
b000000010000 5
b000000000111 8
b0000000001000 ;
b00001 ?
b1000 @
1A
1Q
1Y
b00 Z
0]
1_
#90500000000
1!
1(
1.
b000000001000 7
1]
#91000000000
0!
0(
0.
b000000100000 5
b000000000000 8
b0111111111111 ;
b000000001000 <
b00010 ?
b0 @
0A
1O
0Q
1T
1U
0Y
b01 Z
1[
b00 \
0]
0_
#91500000000
1!
1(
1.
b000000001000 =
1]
b000000001000 d
#92000000000
0!
0(
0.
b000001000000 5
b000000000000 <
0O
0T
0U
0[
b01 \
0]
#92500000000
1!
1(
1.
1]
#93000000000
0!
0(
0.
b000010000000 5
0]
#93500000000
1!
1(
1.
1]
#94000000000
0!
0(
0.
b000100000000 5
b111111111111 8
b111111111111 @
1P
1Q
1Y
0]
#94500000000
1!
1(
1.
b111111111111 7
1]
#95000000000
0!
0(
0.
b001000000000 5
b000000000000 8
b111111111111 <
b0 @
1C
0P
0Q
1T
1U
0Y
0]
#95500000000
1!
1(
1.
1B
1]
1`
#96000000000
0!
0(
0.
b010000000000 5
b000000000000 <
0C
0T
0U
0]
#96500000000
1!
1(
1.
1]
#97000000000
0!
0(
0.
b100000000000 5
0]
#97500000000
1!
1(
1.
1]
#98000000000
0!
0(
0.
b000000000001 5
b000000001000 8
b0000000001000 ;
b01111 ?
b1000 @
1N
1Q
1V
1Y
b00 Z
0]
#98500000000
1!
1(
1.
b000000001000 7
1]
